<svg width="60" height="60" viewBox="0 0 60 60" fill="none" xmlns="http://www.w3.org/2000/svg">
<rect width="60" height="60" fill="#FFCD3F"/>
<circle cx="22.8001" cy="19.3751" r="12.3751" fill="#FFF9EA"/>
<path fill-rule="evenodd" clip-rule="evenodd" d="M29.4001 21.8835C28.9911 21.8613 28.5785 21.8501 28.1627 21.8501C25.9931 21.8501 23.9104 22.1561 21.9751 22.7186V51.5068C23.9104 52.0692 25.9931 52.3753 28.1627 52.3753C28.5785 52.3753 28.9911 52.364 29.4001 52.3419V21.8835ZM36.0002 50.9521C42.335 48.5226 46.7253 43.2392 46.7253 37.1127C46.7253 30.9862 42.335 25.7027 36.0002 23.2732V50.9521ZM9.60005 37.1127C9.60005 32.7584 11.8177 28.8299 15.3751 26.0493V48.1761C11.8177 45.3954 9.60005 41.467 9.60005 37.1127Z" fill="#222222"/>
<path d="M40.5687 32.6592L47.725 24.9527L51.32 28.6663" stroke="#222222" stroke-width="2"/>
</svg>
